DIVISOR_FRECUENCIA_25HZ/simulation/qsim/DIVISOR_FRECUENCIA_25HZ.msim.vcd
$comment
	File created using the following command:
		vcd file DIVISOR_FRECUENCIA_25HZ.msim.vcd -direction
$end
$date
	Mon Mar 11 09:54:33 2024
$end
$version
	ModelSim Version 10.5b
$end
$timescale
	1ps
$end

$scope module divisor_frecuencia_25hz_vhd_vec_tst $end
$var wire 1 ! clk25 $end
$var wire 1 " clk50 $end

$scope module i1 $end
$var wire 1 # gnd $end
$var wire 1 $ vcc $end
$var wire 1 % unknown $end
$var wire 1 & devoe $end
$var wire 1 ' devclrn $end
$var wire 1 ( devpor $end
$var wire 1 ) ww_devoe $end
$var wire 1 * ww_devclrn $end
$var wire 1 + ww_devpor $end
$var wire 1 , ww_clk50 $end
$var wire 1 - \~QUARTUS_CREATED_ADC1~_CHSEL_bus\ [4] $end
$var wire 1 . \~QUARTUS_CREATED_ADC1~_CHSEL_bus\ [3] $end
$var wire 1 / \~QUARTUS_CREATED_ADC1~_CHSEL_bus\ [2] $end
$var wire 1 0 \~QUARTUS_CREATED_ADC1~_CHSEL_bus\ [1] $end
$var wire 1 1 \~QUARTUS_CREATED_ADC1~_CHSEL_bus\ [0] $end
$var wire 1 2 \clk25~input_o\ $end
$var wire 1 3 \~QUARTUS_CREATED_GND~I_combout\ $end
$var wire 1 4 \~QUARTUS_CREATED_UNVM~~busy\ $end
$var wire 1 5 \~QUARTUS_CREATED_ADC1~~eoc\ $end
$var wire 1 6 \clk25~output_o\ $end
$var wire 1 7 \clk50~input_o\ $end
$var wire 1 8 \clk25~2_combout\ $end
$var wire 1 9 \clk25~reg0_q\ $end
$upscope $end
$upscope $end
$enddefinitions $end
#0
$dumpvars
0!
0"
0#
1$
x%
1&
1'
1(
1)
1*
1+
0,
02
03
z4
z5
06
07
18
09
0-
0.
0/
00
01
$end
#25000
1"
1,
17
19
16
08
1!
12
#50000
0"
0,
07
#75000
1"
1,
17
09
06
18
0!
02
#100000
0"
0,
07
#125000
1"
1,
17
19
16
08
1!
12
#150000
0"
0,
07
#175000
1"
1,
17
09
06
18
0!
02
#200000
0"
0,
07
#225000
1"
1,
17
19
16
08
1!
12
#250000
0"
0,
07
#275000
1"
1,
17
09
06
18
0!
02
#300000
0"
0,
07
#325000
1"
1,
17
19
16
08
1!
12
#350000
0"
0,
07
#375000
1"
1,
17
09
06
18
0!
02
#400000
0"
0,
07
#425000
1"
1,
17
19
16
08
1!
12
#450000
0"
0,
07
#475000
1"
1,
17
09
06
18
0!
02
#500000
0"
0,
07
#525000
1"
1,
17
19
16
08
1!
12
#550000
0"
0,
07
#575000
1"
1,
17
09
06
18
0!
02
#600000
0"
0,
07
#625000
1"
1,
17
19
16
08
1!
12
#650000
0"
0,
07
#675000
1"
1,
17
09
06
18
0!
02
#700000
0"
0,
07
#725000
1"
1,
17
19
16
08
1!
12
#750000
0"
0,
07
#775000
1"
1,
17
09
06
18
0!
02
#800000
0"
0,
07
#825000
1"
1,
17
19
16
08
1!
12
#850000
0"
0,
07
#875000
1"
1,
17
09
06
18
0!
02
#900000
0"
0,
07
#925000
1"
1,
17
19
16
08
1!
12
#950000
0"
0,
07
#975000
1"
1,
17
09
06
18
0!
02
