RELOJ/simulation/qsim/RELOJ.msim.vcd
$comment
	File created using the following command:
		vcd file RELOJ.msim.vcd -direction
$end
$date
	Mon Mar 11 10:00:20 2024
$end
$version
	ModelSim Version 10.5b
$end
$timescale
	1ps
$end

$scope module reloj_vhd_vec_tst $end
$var wire 1 ! clkl $end
$var wire 1 " led $end

$scope module i1 $end
$var wire 1 # gnd $end
$var wire 1 $ vcc $end
$var wire 1 % unknown $end
$var wire 1 & devoe $end
$var wire 1 ' devclrn $end
$var wire 1 ( devpor $end
$var wire 1 ) ww_devoe $end
$var wire 1 * ww_devclrn $end
$var wire 1 + ww_devpor $end
$var wire 1 , ww_clkl $end
$var wire 1 - ww_led $end
$var wire 1 . \~QUARTUS_CREATED_ADC1~_CHSEL_bus\ [4] $end
$var wire 1 / \~QUARTUS_CREATED_ADC1~_CHSEL_bus\ [3] $end
$var wire 1 0 \~QUARTUS_CREATED_ADC1~_CHSEL_bus\ [2] $end
$var wire 1 1 \~QUARTUS_CREATED_ADC1~_CHSEL_bus\ [1] $end
$var wire 1 2 \~QUARTUS_CREATED_ADC1~_CHSEL_bus\ [0] $end
$var wire 1 3 \clkl~inputclkctrl_INCLK_bus\ [3] $end
$var wire 1 4 \clkl~inputclkctrl_INCLK_bus\ [2] $end
$var wire 1 5 \clkl~inputclkctrl_INCLK_bus\ [1] $end
$var wire 1 6 \clkl~inputclkctrl_INCLK_bus\ [0] $end
$var wire 1 7 \~QUARTUS_CREATED_GND~I_combout\ $end
$var wire 1 8 \~QUARTUS_CREATED_UNVM~~busy\ $end
$var wire 1 9 \~QUARTUS_CREATED_ADC1~~eoc\ $end
$var wire 1 : \led~output_o\ $end
$var wire 1 ; \clkl~input_o\ $end
$var wire 1 < \clkl~inputclkctrl_outclk\ $end
$var wire 1 = \Add0~1\ $end
$var wire 1 > \Add0~2_combout\ $end
$var wire 1 ? \Add0~3\ $end
$var wire 1 @ \Add0~4_combout\ $end
$var wire 1 A \Add0~5\ $end
$var wire 1 B \Add0~6_combout\ $end
$var wire 1 C \Add0~7\ $end
$var wire 1 D \Add0~8_combout\ $end
$var wire 1 E \conteo~3_combout\ $end
$var wire 1 F \Add0~9\ $end
$var wire 1 G \Add0~10_combout\ $end
$var wire 1 H \Add0~11\ $end
$var wire 1 I \Add0~12_combout\ $end
$var wire 1 J \Add0~13\ $end
$var wire 1 K \Add0~14_combout\ $end
$var wire 1 L \conteo~4_combout\ $end
$var wire 1 M \Add0~15\ $end
$var wire 1 N \Add0~16_combout\ $end
$var wire 1 O \Add0~17\ $end
$var wire 1 P \Add0~18_combout\ $end
$var wire 1 Q \Add0~19\ $end
$var wire 1 R \Add0~20_combout\ $end
$var wire 1 S \Add0~21\ $end
$var wire 1 T \Add0~22_combout\ $end
$var wire 1 U \Add0~23\ $end
$var wire 1 V \Add0~24_combout\ $end
$var wire 1 W \conteo~5_combout\ $end
$var wire 1 X \Add0~25\ $end
$var wire 1 Y \Add0~26_combout\ $end
$var wire 1 Z \Add0~27\ $end
$var wire 1 [ \Add0~28_combout\ $end
$var wire 1 \ \conteo~6_combout\ $end
$var wire 1 ] \Add0~29\ $end
$var wire 1 ^ \Add0~30_combout\ $end
$var wire 1 _ \conteo~7_combout\ $end
$var wire 1 ` \Add0~31\ $end
$var wire 1 a \Add0~32_combout\ $end
$var wire 1 b \conteo~0_combout\ $end
$var wire 1 c \Add0~0_combout\ $end
$var wire 1 d \conteo~2_combout\ $end
$var wire 1 e \Equal0~0_combout\ $end
$var wire 1 f \Equal0~1_combout\ $end
$var wire 1 g \Equal0~3_combout\ $end
$var wire 1 h \Equal0~2_combout\ $end
$var wire 1 i \Equal0~4_combout\ $end
$var wire 1 j \Add0~33\ $end
$var wire 1 k \Add0~34_combout\ $end
$var wire 1 l \conteo~1_combout\ $end
$var wire 1 m \led~0_combout\ $end
$var wire 1 n \led~reg0_q\ $end
$var wire 1 o conteo [17] $end
$var wire 1 p conteo [16] $end
$var wire 1 q conteo [15] $end
$var wire 1 r conteo [14] $end
$var wire 1 s conteo [13] $end
$var wire 1 t conteo [12] $end
$var wire 1 u conteo [11] $end
$var wire 1 v conteo [10] $end
$var wire 1 w conteo [9] $end
$var wire 1 x conteo [8] $end
$var wire 1 y conteo [7] $end
$var wire 1 z conteo [6] $end
$var wire 1 { conteo [5] $end
$var wire 1 | conteo [4] $end
$var wire 1 } conteo [3] $end
$var wire 1 ~ conteo [2] $end
$var wire 1 !! conteo [1] $end
$var wire 1 "! conteo [0] $end
$upscope $end
$upscope $end
$enddefinitions $end
#0
$dumpvars
0!
0"
0#
1$
x%
1&
1'
1(
1)
1*
1+
0,
0-
07
z8
z9
0:
0;
0<
0=
0>
1?
0@
0A
0B
1C
0D
0E
0F
0G
1H
0I
0J
0K
0L
1M
0N
0O
0P
1Q
0R
0S
0T
1U
0V
0W
0X
0Y
1Z
0[
0\
0]
0^
0_
1`
0a
0b
1c
1d
1e
0f
0g
1h
0i
0j
0k
0l
0m
0n
0o
0p
0q
0r
0s
0t
0u
0v
0w
0x
0y
0z
0{
0|
0}
0~
0!!
0"!
13
14
15
06
0.
0/
00
01
02
$end
#5000
1!
1,
1;
16
1<
1"!
0c
1=
0e
1>
0d
#10000
0!
0,
0;
06
0<
#15000
1!
1,
1;
16
1<
1!!
0"!
1c
0=
0>
0?
1@
1>
1?
1d
0@
#20000
0!
0,
0;
06
0<
#25000
1!
1,
1;
16
1<
1"!
0c
1=
0>
0?
0d
1@
#30000
0!
0,
0;
06
0<
#35000
1!
1,
1;
16
1<
0!!
1~
0"!
1c
0=
0@
1A
1>
1?
1@
0A
1B
0>
1d
0B
#40000
0!
0,
0;
06
0<
#45000
1!
1,
1;
16
1<
1"!
0c
1=
1>
0d
#50000
0!
0,
0;
06
0<
#55000
1!
1,
1;
16
1<
1!!
0"!
1c
0=
0>
0?
0@
1A
1>
1?
1d
1@
0A
1B
0B
#60000
0!
0,
0;
06
0<
#65000
1!
1,
1;
16
1<
1"!
0c
1=
0>
0?
0d
0@
1A
1B
#70000
0!
0,
0;
06
0<
#75000
1!
1,
1;
16
1<
0!!
0~
1}
0"!
1c
0=
0B
0C
1@
0A
1>
1?
0@
1B
1C
1D
0>
1d
1E
0D
0E
#80000
0!
0,
0;
06
0<
#85000
1!
1,
1;
16
1<
1"!
0c
1=
1>
0d
#90000
0!
0,
0;
06
0<
#95000
1!
1,
1;
16
1<
1!!
0"!
1c
0=
0>
0?
1@
1>
1?
1d
0@
#100000
0!
0,
0;
06
0<
#105000
1!
1,
1;
16
1<
1"!
0c
1=
0>
0?
0d
1@
#110000
0!
0,
0;
06
0<
#115000
1!
1,
1;
16
1<
0!!
1~
0"!
1c
0=
0@
1A
1>
1?
1@
0A
0B
0C
0>
1d
1D
1B
1C
0D
1E
0E
#120000
0!
0,
0;
06
0<
#125000
1!
1,
1;
16
1<
1"!
0c
1=
1>
0d
#130000
0!
0,
0;
06
0<
#135000
1!
1,
1;
16
1<
1!!
0"!
1c
0=
0>
0?
0@
1A
1>
1?
1d
1@
0A
0B
0C
1D
1B
1C
0D
1E
0E
#140000
0!
0,
0;
06
0<
#145000
1!
1,
1;
16
1<
1"!
0c
1=
0>
0?
0d
0@
1A
0B
0C
1D
1E
#150000
0!
0,
0;
06
0<
#155000
1!
1,
1;
16
1<
0!!
0~
0}
1|
0"!
1c
0=
0D
1F
1B
1C
1@
0A
1>
1?
1e
0@
0B
1D
0F
1G
0E
0>
1d
0G
1E
#160000
0!
0,
0;
06
0<
#165000
1!
1,
1;
16
1<
1"!
0c
1=
0e
1>
0d
#170000
0!
0,
0;
06
0<
#175000
1!
1,
1;
16
1<
1!!
0"!
1c
0=
0>
0?
1@
1>
1?
1d
0@
#180000
0!
0,
0;
06
0<
#185000
1!
1,
1;
16
1<
1"!
0c
1=
0>
0?
0d
1@
#190000
0!
0,
0;
06
0<
#195000
1!
1,
1;
16
1<
0!!
1~
0"!
1c
0=
0@
1A
1>
1?
1@
0A
1B
0>
1d
0B
#200000
0!
0,
0;
06
0<
#205000
1!
1,
1;
16
1<
1"!
0c
1=
1>
0d
#210000
0!
0,
0;
06
0<
#215000
1!
1,
1;
16
1<
1!!
0"!
1c
0=
0>
0?
0@
1A
1>
1?
1d
1@
0A
1B
0B
#220000
0!
0,
0;
06
0<
#225000
1!
1,
1;
16
1<
1"!
0c
1=
0>
0?
0d
0@
1A
1B
#230000
0!
0,
0;
06
0<
#235000
1!
1,
1;
16
1<
0!!
0~
1}
0"!
1c
0=
0B
0C
1@
0A
1>
1?
0@
1B
1C
0D
1F
0>
1d
1G
0E
1D
0F
0G
1E
#240000
0!
0,
0;
06
0<
#245000
1!
1,
1;
16
1<
1"!
0c
1=
1>
0d
#250000
0!
0,
0;
06
0<
#255000
1!
1,
1;
16
1<
1!!
0"!
1c
0=
0>
0?
1@
1>
1?
1d
0@
#260000
0!
0,
0;
06
0<
#265000
1!
1,
1;
16
1<
1"!
0c
1=
0>
0?
0d
1@
#270000
0!
0,
0;
06
0<
#275000
1!
1,
1;
16
1<
0!!
1~
0"!
1c
0=
0@
1A
1>
1?
1@
0A
0B
0C
0>
1d
0D
1F
1B
1C
1D
0F
1G
0E
0G
1E
#280000
0!
0,
0;
06
0<
#285000
1!
1,
1;
16
1<
1"!
0c
1=
1>
0d
#290000
0!
0,
0;
06
0<
#295000
1!
1,
1;
16
1<
1!!
0"!
1c
0=
0>
0?
0@
1A
1>
1?
1d
1@
0A
0B
0C
0D
1F
1B
1C
1D
0F
1G
0E
0G
1E
#300000
0!
0,
0;
06
0<
#305000
1!
1,
1;
16
1<
1"!
0c
1=
0>
0?
0d
0@
1A
0B
0C
0D
1F
1G
0E
#310000
0!
0,
0;
06
0<
#315000
1!
1,
1;
16
1<
0!!
0~
0}
0|
1{
0"!
1c
0=
0G
0H
1D
0F
1B
1C
1@
0A
1>
1?
1e
0@
0B
0D
1G
1H
1E
1I
0>
1d
0I
0E
#320000
0!
0,
0;
06
0<
#325000
1!
1,
1;
16
1<
1"!
0c
1=
0e
1>
0d
#330000
0!
0,
0;
06
0<
#335000
1!
1,
1;
16
1<
1!!
0"!
1c
0=
0>
0?
1@
1>
1?
1d
0@
#340000
0!
0,
0;
06
0<
#345000
1!
1,
1;
16
1<
1"!
0c
1=
0>
0?
0d
1@
#350000
0!
0,
0;
06
0<
#355000
1!
1,
1;
16
1<
0!!
1~
0"!
1c
0=
0@
1A
1>
1?
1@
0A
1B
0>
1d
0B
#360000
0!
0,
0;
06
0<
#365000
1!
1,
1;
16
1<
1"!
0c
1=
1>
0d
#370000
0!
0,
0;
06
0<
#375000
1!
1,
1;
16
1<
1!!
0"!
1c
0=
0>
0?
0@
1A
1>
1?
1d
1@
0A
1B
0B
#380000
0!
0,
0;
06
0<
#385000
1!
1,
1;
16
1<
1"!
0c
1=
0>
0?
0d
0@
1A
1B
#390000
0!
0,
0;
06
0<
#395000
1!
1,
1;
16
1<
0!!
0~
1}
0"!
1c
0=
0B
0C
1@
0A
1>
1?
0@
1B
1C
1D
0>
1d
1E
0D
0E
#400000
0!
0,
0;
06
0<
#405000
1!
1,
1;
16
1<
1"!
0c
1=
1>
0d
#410000
0!
0,
0;
06
0<
#415000
1!
1,
1;
16
1<
1!!
0"!
1c
0=
0>
0?
1@
1>
1?
1d
0@
#420000
0!
0,
0;
06
0<
#425000
1!
1,
1;
16
1<
1"!
0c
1=
0>
0?
0d
1@
#430000
0!
0,
0;
06
0<
#435000
1!
1,
1;
16
1<
0!!
1~
0"!
1c
0=
0@
1A
1>
1?
1@
0A
0B
0C
0>
1d
1D
1B
1C
0D
1E
0E
#440000
0!
0,
0;
06
0<
#445000
1!
1,
1;
16
1<
1"!
0c
1=
1>
0d
#450000
0!
0,
0;
06
0<
#455000
1!
1,
1;
16
1<
1!!
0"!
1c
0=
0>
0?
0@
1A
1>
1?
1d
1@
0A
0B
0C
1D
1B
1C
0D
1E
0E
#460000
0!
0,
0;
06
0<
#465000
1!
1,
1;
16
1<
1"!
0c
1=
0>
0?
0d
0@
1A
0B
0C
1D
1E
#470000
0!
0,
0;
06
0<
#475000
1!
1,
1;
16
1<
0!!
0~
0}
1|
0"!
1c
0=
0D
1F
1B
1C
1@
0A
1>
1?
1e
0@
0B
1D
0F
0G
0H
0E
0>
1d
1I
1G
1H
1E
0I
#480000
0!
0,
0;
06
0<
#485000
1!
1,
1;
16
1<
1"!
0c
1=
0e
1>
0d
#490000
0!
0,
0;
06
0<
#495000
1!
1,
1;
16
1<
1!!
0"!
1c
0=
0>
0?
1@
1>
1?
1d
0@
#500000
0!
0,
0;
06
0<
#505000
1!
1,
1;
16
1<
1"!
0c
1=
0>
0?
0d
1@
#510000
0!
0,
0;
06
0<
#515000
1!
1,
1;
16
1<
0!!
1~
0"!
1c
0=
0@
1A
1>
1?
1@
0A
1B
0>
1d
0B
#520000
0!
0,
0;
06
0<
#525000
1!
1,
1;
16
1<
1"!
0c
1=
1>
0d
#530000
0!
0,
0;
06
0<
#535000
1!
1,
1;
16
1<
1!!
0"!
1c
0=
0>
0?
0@
1A
1>
1?
1d
1@
0A
1B
0B
#540000
0!
0,
0;
06
0<
#545000
1!
1,
1;
16
1<
1"!
0c
1=
0>
0?
0d
0@
1A
1B
#550000
0!
0,
0;
06
0<
#555000
1!
1,
1;
16
1<
0!!
0~
1}
0"!
1c
0=
0B
0C
1@
0A
1>
1?
0@
1B
1C
0D
1F
0>
1d
0G
0H
0E
1D
0F
1G
1H
1E
1I
0I
#560000
0!
0,
0;
06
0<
#565000
1!
1,
1;
16
1<
1"!
0c
1=
1>
0d
#570000
0!
0,
0;
06
0<
#575000
1!
1,
1;
16
1<
1!!
0"!
1c
0=
0>
0?
1@
1>
1?
1d
0@
#580000
0!
0,
0;
06
0<
#585000
1!
1,
1;
16
1<
1"!
0c
1=
0>
0?
0d
1@
#590000
0!
0,
0;
06
0<
#595000
1!
1,
1;
16
1<
0!!
1~
0"!
1c
0=
0@
1A
1>
1?
1@
0A
0B
0C
0>
1d
0D
1F
1B
1C
1D
0F
0G
0H
0E
1I
1G
1H
1E
0I
#600000
0!
0,
0;
06
0<
#605000
1!
1,
1;
16
1<
1"!
0c
1=
1>
0d
#610000
0!
0,
0;
06
0<
#615000
1!
1,
1;
16
1<
1!!
0"!
1c
0=
0>
0?
0@
1A
1>
1?
1d
1@
0A
0B
0C
0D
1F
1B
1C
1D
0F
0G
0H
0E
1I
1G
1H
1E
0I
#620000
0!
0,
0;
06
0<
#625000
1!
1,
1;
16
1<
1"!
0c
1=
0>
0?
0d
0@
1A
0B
0C
0D
1F
0G
0H
0E
1I
#630000
0!
0,
0;
06
0<
#635000
1!
1,
1;
16
1<
0!!
0~
0}
0|
0{
1z
0"!
1c
0=
0I
1J
1G
1H
1D
0F
1B
1C
1@
0A
1>
1?
1e
0@
0B
0D
0G
1E
1I
0J
1K
0>
1d
1L
0K
0E
0L
#640000
0!
0,
0;
06
0<
#645000
1!
1,
1;
16
1<
1"!
0c
1=
0e
1>
0d
#650000
0!
0,
0;
06
0<
#655000
1!
1,
1;
16
1<
1!!
0"!
1c
0=
0>
0?
1@
1>
1?
1d
0@
#660000
0!
0,
0;
06
0<
#665000
1!
1,
1;
16
1<
1"!
0c
1=
0>
0?
0d
1@
#670000
0!
0,
0;
06
0<
#675000
1!
1,
1;
16
1<
0!!
1~
0"!
1c
0=
0@
1A
1>
1?
1@
0A
1B
0>
1d
0B
#680000
0!
0,
0;
06
0<
#685000
1!
1,
1;
16
1<
1"!
0c
1=
1>
0d
#690000
0!
0,
0;
06
0<
#695000
1!
1,
1;
16
1<
1!!
0"!
1c
0=
0>
0?
0@
1A
1>
1?
1d
1@
0A
1B
0B
#700000
0!
0,
0;
06
0<
#705000
1!
1,
1;
16
1<
1"!
0c
1=
0>
0?
0d
0@
1A
1B
#710000
0!
0,
0;
06
0<
#715000
1!
1,
1;
16
1<
0!!
0~
1}
0"!
1c
0=
0B
0C
1@
0A
1>
1?
0@
1B
1C
1D
0>
1d
1E
0D
0E
#720000
0!
0,
0;
06
0<
#725000
1!
1,
1;
16
1<
1"!
0c
1=
1>
0d
#730000
0!
0,
0;
06
0<
#735000
1!
1,
1;
16
1<
1!!
0"!
1c
0=
0>
0?
1@
1>
1?
1d
0@
#740000
0!
0,
0;
06
0<
#745000
1!
1,
1;
16
1<
1"!
0c
1=
0>
0?
0d
1@
#750000
0!
0,
0;
06
0<
#755000
1!
1,
1;
16
1<
0!!
1~
0"!
1c
0=
0@
1A
1>
1?
1@
0A
0B
0C
0>
1d
1D
1B
1C
0D
1E
0E
#760000
0!
0,
0;
06
0<
#765000
1!
1,
1;
16
1<
1"!
0c
1=
1>
0d
#770000
0!
0,
0;
06
0<
#775000
1!
1,
1;
16
1<
1!!
0"!
1c
0=
0>
0?
0@
1A
1>
1?
1d
1@
0A
0B
0C
1D
1B
1C
0D
1E
0E
#780000
0!
0,
0;
06
0<
#785000
1!
1,
1;
16
1<
1"!
0c
1=
0>
0?
0d
0@
1A
0B
0C
1D
1E
#790000
0!
0,
0;
06
0<
#795000
1!
1,
1;
16
1<
0!!
0~
0}
1|
0"!
1c
0=
0D
1F
1B
1C
1@
0A
1>
1?
1e
0@
0B
1D
0F
1G
0E
0>
1d
0G
1E
#800000
0!
0,
0;
06
0<
#805000
1!
1,
1;
16
1<
1"!
0c
1=
0e
1>
0d
#810000
0!
0,
0;
06
0<
#815000
1!
1,
1;
16
1<
1!!
0"!
1c
0=
0>
0?
1@
1>
1?
1d
0@
#820000
0!
0,
0;
06
0<
#825000
1!
1,
1;
16
1<
1"!
0c
1=
0>
0?
0d
1@
#830000
0!
0,
0;
06
0<
#835000
1!
1,
1;
16
1<
0!!
1~
0"!
1c
0=
0@
1A
1>
1?
1@
0A
1B
0>
1d
0B
#840000
0!
0,
0;
06
0<
#845000
1!
1,
1;
16
1<
1"!
0c
1=
1>
0d
#850000
0!
0,
0;
06
0<
#855000
1!
1,
1;
16
1<
1!!
0"!
1c
0=
0>
0?
0@
1A
1>
1?
1d
1@
0A
1B
0B
#860000
0!
0,
0;
06
0<
#865000
1!
1,
1;
16
1<
1"!
0c
1=
0>
0?
0d
0@
1A
1B
#870000
0!
0,
0;
06
0<
#875000
1!
1,
1;
16
1<
0!!
0~
1}
0"!
1c
0=
0B
0C
1@
0A
1>
1?
0@
1B
1C
0D
1F
0>
1d
1G
0E
1D
0F
0G
1E
#880000
0!
0,
0;
06
0<
#885000
1!
1,
1;
16
1<
1"!
0c
1=
1>
0d
#890000
0!
0,
0;
06
0<
#895000
1!
1,
1;
16
1<
1!!
0"!
1c
0=
0>
0?
1@
1>
1?
1d
0@
#900000
0!
0,
0;
06
0<
#905000
1!
1,
1;
16
1<
1"!
0c
1=
0>
0?
0d
1@
#910000
0!
0,
0;
06
0<
#915000
1!
1,
1;
16
1<
0!!
1~
0"!
1c
0=
0@
1A
1>
1?
1@
0A
0B
0C
0>
1d
0D
1F
1B
1C
1D
0F
1G
0E
0G
1E
#920000
0!
0,
0;
06
0<
#925000
1!
1,
1;
16
1<
1"!
0c
1=
1>
0d
#930000
0!
0,
0;
06
0<
#935000
1!
1,
1;
16
1<
1!!
0"!
1c
0=
0>
0?
0@
1A
1>
1?
1d
1@
0A
0B
0C
0D
1F
1B
1C
1D
0F
1G
0E
0G
1E
#940000
0!
0,
0;
06
0<
#945000
1!
1,
1;
16
1<
1"!
0c
1=
0>
0?
0d
0@
1A
0B
0C
0D
1F
1G
0E
#950000
0!
0,
0;
06
0<
#955000
1!
1,
1;
16
1<
0!!
0~
0}
0|
1{
0"!
1c
0=
0G
0H
1D
0F
1B
1C
1@
0A
1>
1?
1e
0@
0B
0D
1G
1H
1E
0I
1J
0>
1d
1K
1I
0J
0E
0K
1L
0L
#960000
0!
0,
0;
06
0<
#965000
1!
1,
1;
16
1<
1"!
0c
1=
0e
1>
0d
#970000
0!
0,
0;
06
0<
#975000
1!
1,
1;
16
1<
1!!
0"!
1c
0=
0>
0?
1@
1>
1?
1d
0@
#980000
0!
0,
0;
06
0<
#985000
1!
1,
1;
16
1<
1"!
0c
1=
0>
0?
0d
1@
#990000
0!
0,
0;
06
0<
#995000
1!
1,
1;
16
1<
0!!
1~
0"!
1c
0=
0@
1A
1>
1?
1@
0A
1B
0>
1d
0B
