SEGMENTOS_7/simulation/qsim/SEGMENTOS_7.msim.vcd
$comment
	File created using the following command:
		vcd file SEGMENTOS_7.msim.vcd -direction
$end
$date
	Mon Mar 11 10:06:12 2024
$end
$version
	ModelSim Version 10.5b
$end
$timescale
	1ps
$end

$scope module segmentos_7_vhd_vec_tst $end
$var wire 1 ! bcd [3] $end
$var wire 1 " bcd [2] $end
$var wire 1 # bcd [1] $end
$var wire 1 $ bcd [0] $end
$var wire 1 % HEX [6] $end
$var wire 1 & HEX [5] $end
$var wire 1 ' HEX [4] $end
$var wire 1 ( HEX [3] $end
$var wire 1 ) HEX [2] $end
$var wire 1 * HEX [1] $end
$var wire 1 + HEX [0] $end

$scope module i1 $end
$var wire 1 , gnd $end
$var wire 1 - vcc $end
$var wire 1 . unknown $end
$var wire 1 / devoe $end
$var wire 1 0 devclrn $end
$var wire 1 1 devpor $end
$var wire 1 2 ww_devoe $end
$var wire 1 3 ww_devclrn $end
$var wire 1 4 ww_devpor $end
$var wire 1 5 ww_bcd [3] $end
$var wire 1 6 ww_bcd [2] $end
$var wire 1 7 ww_bcd [1] $end
$var wire 1 8 ww_bcd [0] $end
$var wire 1 9 ww_HEX [6] $end
$var wire 1 : ww_HEX [5] $end
$var wire 1 ; ww_HEX [4] $end
$var wire 1 < ww_HEX [3] $end
$var wire 1 = ww_HEX [2] $end
$var wire 1 > ww_HEX [1] $end
$var wire 1 ? ww_HEX [0] $end
$var wire 1 @ \~QUARTUS_CREATED_ADC1~_CHSEL_bus\ [4] $end
$var wire 1 A \~QUARTUS_CREATED_ADC1~_CHSEL_bus\ [3] $end
$var wire 1 B \~QUARTUS_CREATED_ADC1~_CHSEL_bus\ [2] $end
$var wire 1 C \~QUARTUS_CREATED_ADC1~_CHSEL_bus\ [1] $end
$var wire 1 D \~QUARTUS_CREATED_ADC1~_CHSEL_bus\ [0] $end
$var wire 1 E \~QUARTUS_CREATED_GND~I_combout\ $end
$var wire 1 F \~QUARTUS_CREATED_UNVM~~busy\ $end
$var wire 1 G \~QUARTUS_CREATED_ADC1~~eoc\ $end
$var wire 1 H \HEX[0]~output_o\ $end
$var wire 1 I \HEX[1]~output_o\ $end
$var wire 1 J \HEX[2]~output_o\ $end
$var wire 1 K \HEX[3]~output_o\ $end
$var wire 1 L \HEX[4]~output_o\ $end
$var wire 1 M \HEX[5]~output_o\ $end
$var wire 1 N \HEX[6]~output_o\ $end
$var wire 1 O \bcd[2]~input_o\ $end
$var wire 1 P \bcd[1]~input_o\ $end
$var wire 1 Q \bcd[0]~input_o\ $end
$var wire 1 R \bcd[3]~input_o\ $end
$var wire 1 S \Mux6~0_combout\ $end
$var wire 1 T \Mux5~0_combout\ $end
$var wire 1 U \Mux4~0_combout\ $end
$var wire 1 V \Mux3~0_combout\ $end
$var wire 1 W \Mux2~0_combout\ $end
$var wire 1 X \Mux1~0_combout\ $end
$var wire 1 Y \Mux0~0_combout\ $end
$var wire 1 Z \ALT_INV_Mux0~0_combout\ $end
$upscope $end
$upscope $end
$enddefinitions $end
#0
$dumpvars
0,
1-
x.
1/
10
11
12
13
14
0E
zF
zG
0H
0I
0J
0K
0L
0M
1N
0O
0P
0Q
0R
0S
0T
0U
0V
0W
0X
0Y
1Z
0!
0"
0#
0$
05
06
07
08
19
0:
0;
0<
0=
0>
0?
0@
0A
0B
0C
0D
1%
0&
0'
0(
0)
0*
0+
$end
#31000
1$
18
1Q
1S
1V
1W
1X
1M
1L
1K
1H
1:
1;
1<
1?
1+
1(
1'
1&
#62000
0$
1#
08
17
1P
0Q
0S
1U
0V
0W
1Y
0Z
0L
0K
1J
0H
0N
0;
0<
1=
0?
09
0+
1)
0(
0'
0%
#93000
1$
18
1Q
0U
1W
1L
0J
1;
0=
0)
1'
#124000
0$
0#
1"
08
07
16
1O
0P
0Q
1S
1V
0X
0M
1K
1H
0:
1<
1?
1+
1(
0&
#155000
1$
18
1Q
0S
1T
0V
0K
1I
0H
0<
1>
0?
0+
1*
0(
#186000
0$
1#
08
17
1P
0Q
0W
0L
0;
0'
#217000
1$
18
1Q
0T
1V
1W
1X
0Y
1Z
1M
1L
1K
0I
1N
1:
1;
1<
0>
19
0*
1(
1'
1&
1%
#248000
0$
0#
0"
1!
08
07
06
15
1R
0O
0P
0Q
0V
0W
0X
1Y
0Z
0M
0L
0K
0N
0:
0;
0<
09
0(
0'
0&
0%
#279000
1$
18
1Q
1V
1W
1L
1K
1;
1<
1(
1'
#310000
0$
1#
08
17
1P
0Q
0V
0W
0L
0K
0;
0<
0(
0'
#341000
1$
18
1Q
#372000
0$
0#
1"
08
07
16
1O
0P
0Q
#403000
1$
18
1Q
#434000
0$
1#
08
17
1P
0Q
#465000
1$
18
1Q
#496000
0$
0#
0"
0!
08
07
06
05
0R
0O
0P
0Q
0Y
1Z
1N
19
1%
#527000
1$
18
1Q
1S
1V
1W
1X
1M
1L
1K
1H
1:
1;
1<
1?
1+
1(
1'
1&
#558000
0$
1#
08
17
1P
0Q
0S
1U
0V
0W
1Y
0Z
0L
0K
1J
0H
0N
0;
0<
1=
0?
09
0+
1)
0(
0'
0%
#589000
1$
18
1Q
0U
1W
1L
0J
1;
0=
0)
1'
#620000
0$
0#
1"
08
07
16
1O
0P
0Q
1S
1V
0X
0M
1K
1H
0:
1<
1?
1+
1(
0&
#651000
1$
18
1Q
0S
1T
0V
0K
1I
0H
0<
1>
0?
0+
1*
0(
#682000
0$
1#
08
17
1P
0Q
0W
0L
0;
0'
#713000
1$
18
1Q
0T
1V
1W
1X
0Y
1Z
1M
1L
1K
0I
1N
1:
1;
1<
0>
19
0*
1(
1'
1&
1%
#744000
0$
0#
0"
1!
08
07
06
15
1R
0O
0P
0Q
0V
0W
0X
1Y
0Z
0M
0L
0K
0N
0:
0;
0<
09
0(
0'
0&
0%
#775000
1$
18
1Q
1V
1W
1L
1K
1;
1<
1(
1'
#806000
0$
1#
08
17
1P
0Q
0V
0W
0L
0K
0;
0<
0(
0'
#837000
1$
18
1Q
#868000
0$
0#
1"
08
07
16
1O
0P
0Q
#899000
1$
18
1Q
#930000
0$
1#
08
17
1P
0Q
#961000
1$
18
1Q
#992000
0$
0#
0"
0!
08
07
06
05
0R
0O
0P
0Q
0Y
1Z
1N
19
1%
